PROGRAM FILE 121: ACCURACY OF EXP FUNCTION.
    ANSI STANDARD 7.6, 8.4

SECTION 121.1: ACCURACY OF EXP FUNCTION.

THIS PROGRAM TESTS VALUES RETURNED BY INVOCATIONS OF THE
EXP FUNCTION FOR ACCURACY. THE INVOCATION MUST RETURN,
ACCURATE TO SIX DIGITS, SOME VALUE ACTUALLY TAKEN ON BY
THE FUNCTION WITHIN A DOMAIN BOUNDED BY THE ACTUAL ARGUMENT
PLUS OR MINUS ONE IN THE SIXTH DIGIT. ALSO, AN
'ERROR MEASURE' IS COMPUTED AND REPORTED. THIS MEASURE
IS JUST 2 * THE ABSOLUTE ERROR OVER THE SIZE OF THE RANGE;
THUS, A VALUE JUST BARELY PASSING OR FAILING WILL USUALLY
HAVE A MEASURE OF ABOUT 1. A VALUE 3 TIMES
AS INACCURATE AS EXPECTED WILL HAVE A MEASURE OF 3.

THIS TEST IS INFORMATIVE ONLY, SINCE THE ANSI STANDARD
DOES NOT MANDATE ANY ACCURACY FOR SUPPLIED-FUNCTIONS.

              BEGIN TEST

ARGUMENT        TRUE            COMPUTED        ERROR           OUTCOME
                VALUE           VALUE           MEASURE

-87.4981         1.000133E-38    1.000134E-38    0.0004063758    OK 
-85.9876         4.5296E-38      4.52959E-38     0.01969517      OK 
-75              2.678637E-33    2.678637E-33    0.0001399997    OK 
-44.4444         4.989331E-20    4.989326E-20    0.01002561      OK 
-23.4567         6.49957E-11     6.499577E-11    0.009489858     OK 
-7.77777         0.0004189454    0.0004189454    0.001727123     OK 
-2.22222         0.1083683       0.1083683       0.009386006     OK 
-1               0.3678794       0.3678794       0.002109572     OK 
-0.999999        0.3678798       0.3678798       0.003155914     OK 
-0.456789        0.633314        0.633314        0.01017053      OK 
-0.0987654       0.9059552       0.9059552       0.02936418      OK 
-0.00987654      0.9901721       0.9901721       0.03376966      OK 
-0.000987654     0.9990128       0.9990128       0.007128024     OK 
-9.87654E-05     0.9999012       0.9999012       0.001096545     OK 
-9.87654E-06     0.9999901       0.9999901       0.02674925      OK 
-9.876539E-07    0.999999        0.999999        0.04425057      OK 
-9.87654E-08     0.9999999       0.9999999       0.04246921      OK 
-9.87654E-09     1               1               0.01899335      OK 
-9.87654E-10     1               1               0.00201562      OK 
-9.87654E-15     1               1               2.016528E-08    OK 
-9.87654E-20     1               1               0               OK  - EXACT
-9.87654E-30     1               1               0               OK  - EXACT
-9.87654E-38     1               1               0               OK  - EXACT
 0               1               1              RANGE ZERO       OK  - EXACT
 9.87654E-38     1               1               0               OK  - EXACT
 9.87654E-30     1               1               0               OK  - EXACT
 9.87654E-20     1               1               0               OK  - EXACT
 9.87654E-15     1               1               1.95204E-09     OK 
 9.87654E-10     1               1               0.0001973335    OK 
 9.87654E-09     1               1               0.001973335     OK 
 9.87654E-08     1               1               0.0002471666    OK 
 9.876539E-07    1.000001        1.000001        0.002471584     OK 
 9.87654E-06     1.00001         1.00001         0.004682165     OK 
 9.87654E-05     1.000099        1.000099        0.005944907     OK 
 0.000987654     1.000988        1.000988        0.008372158     OK 
 0.00987654      1.009926        1.009925        0.005222598     OK 
 0.0987654       1.103807        1.103807        0.003746872     OK 
 0.456789        1.578996        1.578996        0.005269835     OK 
 0.999999        2.718279        2.718279        0.002222773     OK 
 1               2.718282        2.718282        0.003995616     OK 
 2.22222         9.227794        9.227793        0.007984287     OK 
 7.77777         2386.946        2386.946        0.0002932332    OK 
 23.4567         1.538563E+10    1.538562E+10    0.009577592     OK 
 44.4444         2.004277E+19    2.004279E+19    0.009619455     OK 
 75              3.733242E+32    3.733242E+32    0.0005201507    OK 
 85.9876         2.207701E+37    2.207705E+37    0.01948146      OK 
 87.4981         9.998665E+37    9.998665E+37    0.0003468508    OK 

*** INFORMATIVE TEST PASSED ***

               END TEST

END PROGRAM 121
