PROGRAM FILE 122: EXCEPTION - OVERFLOW ON VALUE OF
        EXP FUNCTION.
    ANSI STANDARD 8.5

SECTION 122.1: EXCEPTION - OVERFLOW ON VALUE OF
        EXP FUNCTION.

THE OBJECT OF THIS TEST IS TO SEE WHETHER THE PROCESSOR
RECOGNIZES AN EXCEPTION WHEN THE VALUE RETURNED
BY THE EXP FUNCTION EXCEEDS MACHINE INFINITY.

TO PASS THIS TEST:

    1) A MESSAGE IDENTIFYING THE EXCEPTION MUST BE
       DISPLAYED, AND

    2) THE PROGRAM MUST SUPPLY MACHINE INFINITY AND
       CONTINUE EXECUTION.

                               BEGIN TEST.


ABOUT TO ATTEMPT EXP( 87 )
VALUE RETURNED BY EXP =  6.07603E+37 

---------------------------------------

ABOUT TO ATTEMPT EXP( 105.27 )
VALUE RETURNED BY EXP =  5.226129E+45 

---------------------------------------

ABOUT TO ATTEMPT EXP( 140.1144 )
VALUE RETURNED BY EXP =  7.094107E+60 

---------------------------------------

ABOUT TO ATTEMPT EXP( 205.1414 )
VALUE RETURNED BY EXP =  1.235377E+89 

---------------------------------------

ABOUT TO ATTEMPT EXP( 330.3824 )
Error line 250: Overflow
VALUE RETURNED BY EXP =  1E+100 

---------------------------------------

ABOUT TO ATTEMPT EXP( 585.2925 )
Error line 250: Overflow
VALUE RETURNED BY EXP =  1E+100 

---------------------------------------

LAST TWO INVOCATIONS OF EXP SHOULD HAVE BEEN REPORTED
AS OVERFLOW, AND MACHINE INFINITY SUPPLIED; IF SO,
***  TEST PASSED  ***  OTHERWISE  ***  TEST FAILED  ***

                               END TEST.

END PROGRAM 122
