PROGRAM FILE 132: AVERAGE OF RANDOM NUMBERS APPROXIMATES 0.5
        AND 0 <= RND < 1.
    ANSI STANDARD 8.4

SECTION 132.1: AVERAGE OF RANDOM NUMBERS APPROXIMATES 0.5
        AND 0 <= RND < 1.

THIS PROGRAM TESTS WHETHER THE AVERAGE OF A SERIES OF RANDOM
NUMBERS IS SIGNIFICANTLY FAR FROM THE IDEAL OF 0.5. IF SO,
THIS RESULT INDICATES NON-UNIFORM DISTRIBUTION AND THE TEST
FAILS. ALSO, IF ANY OF THE NUMBERS IS OUTSIDE THE ALLOWABLE
RANGE, AN IMMEDIATE FAILURE IS REPORTED.

                BEGIN TEST

                AVERAGE         STD. DEV.
THEORETICAL:     0.5             0.2886751 
ACTUAL:          0.4982025       0.2881313 

ALLOWABLE DEVIATION:  0.006035917 
ACTUAL DEVIATION:     0.00179752 

*** TEST PASSED ***

                END TEST

END PROGRAM 132
