PROGRAM FILE 202: ERROR - LINES LONGER THAN 72 CHARACTERS.
    ANSI STANDARD 4.4

SECTION 202.1: ERROR - LINES LONGER THAN 72 CHARACTERS.

THIS PROGRAM TESTS TO SEE IF THE PROCESSOR ACCEPTS PROGRAMS
CONTAINING LINES LONGER THAN 72 CHARACTERS.

THIS IS A TEST FOR A NON-STANDARD FEATURE OF MINIMAL BASIC.
TO PASS THIS TEST, THE PROCESSOR MUST EITHER:

  1) ACCEPT THE PROGRAM AND BE ACCOMPANIED BY DOCUMENTATION
     ACCURATELY DESCRIBING THE FEATURE'S INTERPRETATION
     BY THE PROCESSOR, OR

  2) REJECT THE PROGRAM WITH AN APPROPRIATE ERROR MESSAGE

SEE THE NBS MINIMAL BASIC TEST PROGRAMS USER'S MANUAL
FOR DETAILED CRITERIA.

                              BEGIN TEST.

THE PROCESSOR HAS EXECUTED A STATEMENT CONTAINING 78 CHARACTERS.

                               END TEST.

END PROGRAM 202
