PROGRAM FILE 22: NUMERIC AND STRING VARIABLE NAMES
        WITH THE SAME INITIAL LETTER.
    ANSI STANDARD 6.2, 6.4

SECTION 22.1: NUMERIC AND STRING VARIABLE NAMES WITH THE
        SAME INITIAL LETTER.

THE STANDARD ESTABLISHES A NAME SPACE OF AT LEAST 286 NUMERIC
DATA NAMES (A - Z, A0 - Z0, A1 - Z1, ..., A9 - Z9) AND 26
DISTINCT STRING DATA NAMES (A$ - Z$).

THIS PROGRAM TESTS THAT DISTINCT VALUES ARE PRESERVED
IN VARIABLES WITH SIMILAR, BUT NOT IDENTICAL, NAMES.

                              BEGIN TEST.

***  TEST PASSED  ***

                               END TEST.

END PROGRAM 22
