PROGRAM FILE 62: GENERAL SYNTACTIC AND SEMANTIC
        PROPERTIES OF ARRAY CONTROL STATEMENTS:
        OPTION AND DIM.
    ANSI STANDARD 15.2, 15.4

SECTION 62.1: GENERAL SYNTACTIC AND SEMANTIC
        PROPERTIES OF ARRAY CONTROL STATEMENTS:
        OPTION AND DIM.

THIS SECTION ASSURES THAT OPTION-STATEMENTS MAY PRECEDE
DIM-STATEMENTS, THAT REFERENCES TO IMPLICITLY-DIMENSIONED
ARRAYS MAY ALSO PRECEDE DIM-STATEMENTS, AND THAT FLOW
OF CONTROL MAY PASS THROUGH OPTION AND DIM STATEMENTS.

                 BEGIN TEST.

 ***  TEST PASSED  *** 

                  END TEST

END PROGRAM 62
