PROGRAM FILE 86: EXCEPTION - RETURN WITHOUT GOSUB.
    ANSI STANDARD 10.5

SECTION 86.1: EXCEPTION - RETURN WITHOUT GOSUB.

ENCOUNTERING A RETURN-STATEMENT WITHOUT HAVING EXECUTED A
CORRESPONDING GOSUB-STATEMENT SHOULD RESULT IN THE 
TERMINATION OF THE PROGRAM AND THE GENERATION OF A MESSAGE
IDENTIFYING THE EXCEPTION.

TO PASS THIS TEST:

     1) A MESSAGE IDENTIFYING THE EXCEPTION MUST BE
        DISPLAYED, AND

     2) THE PROCESSOR MUST TERMINATE THIS PROGRAM WHEN
        THE RETURN-STATEMENT IS ENCOUNTERED.

                 BEGIN TEST.

Error line 320: Stack underflow
