PROGRAM FILE 99: EXCEPTION - READING QUOTED STRING
        DATA INTO A NUMERIC VARIABLE.
    ANSI STANDARD 14.5

SECTION 99.1: EXCEPTION - READING QUOTED STRING
        DATA INTO A NUMERIC VARIABLE.

THIS TEST CAUSES A READ TO BE ATTEMPTED FROM STRING-TYPE
DATA INTO A NUMERIC VARIABLE.

TO PASS THIS TEST:

    1) A MESSAGE IDENTIFYING THE EXCEPTION MUST BE
       DISPLAYED, AND

    2) THE PROGRAM MUST TERMINATE.

                 BEGIN TEST

ABOUT TO READ -
Error line 290: Cannot read string data into a numeric variable
